time_sec,bench,cpu,n_cores,r,year,os,blas_lapack
2.41,R-benchmark-25,AMD 5600x,6,4.1.0,2021,Ubuntu 20.04,Intel MKL 2020.0.166-1
2.44,R-benchmark-25,Intel i5-1135G7,4,4.1.0,2021,Ubuntu 21.04,Intel MKL 2020.4.304-2
2.48,R-benchmark-25,AMD 5600x,6,4.0.3,2021,Ubuntu 20.04,pthread/libopenblasp-r0.3.10.so
3.03,R-benchmark-25,AMD 5600x,6,4.0.2,2021,Windows 10,Intel MKL MRO
3.33,R-benchmark-25,AMD 5600x,6,4.0.2,2021,Ubuntu 20.04,Intel MKL MRO
3.41,R-benchmark-25,Intel i5-1135G7,4,4.1.0,2021,Ubuntu 21.04,pthread/libopenblasp-r0.3.13.so
3.45,R-benchmark-25,Intel i5-1135G7,4,4.1.0,2021,Ubuntu 21.04,openmp/libopenblasp-r0.3.13.so
3.5,R-benchmark-25,Intel i5-1135G7,4,4.0.2,2021,Windows 10,Intel MKL MRO
4.64,R-benchmark-25,AMD 5600x,6,4.0.3,2021,Ubuntu 20.04,atlas/libblas.so.3.10.3
5.69,R-benchmark-25,Intel i5-3320M,2,4.0.3,2021,Ubuntu 20.04,OpenBLAS
6.95,R-benchmark-25,Intel i5-3320M,2,3.1.1,2014,Windows 8.1,Intel MKL
7.06,R-benchmark-25,Intel i5-3320M,2,3.1.1,2014,Ubuntu 14.04,Intel MKL
7.41,R-benchmark-25,Intel i5-3320M,2,3.1.1,2014,Ubuntu 14.04,OpenBLAS
10.37,R-benchmark-25,Intel i5-3320M,2,3.1.1,2014,Ubuntu 14.04,ATLAS
19.81,R-benchmark-25,AMD 5600x,6,4.0.3,2021,Ubuntu 20.04,Default
20.48,R-benchmark-25,AMD 5600x,6,4.0.3,2021,Windows 10,Default
27.92,R-benchmark-25,Intel i5-1135G7,4,4.1.0,2021,Ubuntu 21.04,Default
28.82,R-benchmark-25,Intel i5-1135G7,4,4.1.0,2021,Windows 10,Default
32.47,R-benchmark-25,Intel i5-3320M,2,3.1.1,2014,Windows 8.1,Default
32.89,R-benchmark-25,Intel i5-3320M,2,3.1.1,2014,Ubuntu 14.04,Default
